<?xml version='1.0'?>
<robot xmlns:xacro="http://ros.org/wiki/xacro" name="trikey">

    <xacro:include filename="$(find trikey)/models/trikey/xacro/trikey_base.xacro"/>
    <xacro:include filename="$(find omni_wheel)/models/omni_wheel/xacro/omni_wheel.xacro"/>

    <!-- ===== DUMMY 'BASE' LINK ==== -->
<!--     <xacro:include filename="$(find hcrl_simulator)/models/generic_models.xml" />
    <xacro:virtual_link name="trikey_pinned_base"
                      origin_xyz="0 0 0"
                      origin_rpy="0 0 0" />

    <xacro:fixed_joint jointName="trikeyBaseOffset"
                     parent="trikey_pinned_base" child="trikey_base"
                     origin_xyz="0 0 0.25"
                     origin_rpy="0 0 0" />
 -->
    <xacro:trikey_base modelPath="package://trikey/models/trikey"/>
    <xacro:omni_wheel_0 modelPath="package://trikey/models/trikey" subwheelJointType="fixed"/>
    <xacro:omni_wheel_1 modelPath="package://trikey/models/trikey" subwheelJointType="fixed"/>
    <xacro:omni_wheel_2 modelPath="package://trikey/models/trikey" subwheelJointType="fixed"/>
</robot>
